
        if($_GET['struktur'] == 'simpan'){
            
	$allowed = array('jpg','jpeg','png','gif','JPG');
	$extension = pathinfo($_FILES['foto']['name'], PATHINFO_EXTENSION);

            if(!in_array(strtolower($extension), $allowed)){
                    echo "<script>
                            alert('Data gagal diunggah, ekstensi tidak sesuai.');
                            window.location='index.php';
                         </script>";
            }else{
                $dirfile = 'images/'.$_FILES['foto']['name'];
                if(move_uploaded_file($_FILES['foto']['tmp_name'], $dirfile)){

                    $q = mysql_query("insert into struktur values(null, '".$dirfile."', '".$_POST['nama']."', '".$_POST['jabatan']."')");
                    if ($q) {
                        echo "<script>
                                alert('Data berhasil disimpan');
                                window.location='index.php';
                             </script>";
                    }else {
                       echo "<script>
                                alert('Data gagal disimpan');
                                window.location='index.php';
                             </script>";
                    }
                }
            }
        }         
                        <?php
                    if($_GET['struktur'] == 'input'){
                ?>
                <form action="index.php?struktur=simpan" method="post" enctype="multipart/form-data">
                <table id="luar">
                <tr>
                <td colspan="3" style="text-align: center; font-size: 36px; font-weight: bold">UPLOAD FOTO</td>
                </tr>
                <tr>
                <td>Pilih file</td>
                <td>:</td>
                <td><input type="file" name="foto"></td>
                </tr>
                <tr>
                <td>Nama</td>
                <td>:</td>
                <td><input type="text" name="nama" size="25"></td>
                </tr>
                <tr>
                <td>Jabatan</td>
                <td>:</td>
                <td><input type="text" name="jabatan" size="25"></td>
                </tr>
                <tr>
                    <td colspan="3"><button type="submit" name="proses">Unggah</button><a href="index.php"><button type="button" name="proses">Batal</button></a></td>
                </tr>
                </table>
                </form>
                <?php
                    }else{
                    ?>
                        <?php
                        $sql = "select * from struktur";
                        $query = mysql_query($sql);
                        $no = 1;
                        $awal = 1;
                        while($q = mysql_fetch_array($query)){
                            if($awal == 1){
                                $active = 'active';
                            }
                            if($no == 1){
                        ?>
                            <div class="item <?=$active?>">
                                <?php
                                }
                                if($no < 4){
                                ?>
                                <div class="row">
                                    <div class="col-sm-4">
                                        <div class="member">
                                            <p><img class="img-responsive img-thumbnail img-circle" src="<?=$q['foto']?>" alt="" ></p>
                                            <h3><?=$q['nama']?><small class="designation"><?=$q['jabatan']?></small></h3>
                                        </div>
                                    </div>
                                </div>
                                <div class="row">
                                    <div class="col-sm-4">
                                        <div class="member">
                                            <p><img class="img-responsive img-thumbnail img-circle" src="<?=$q['foto']?>" alt="" ></p>
                                            <h3><?=$q['nama']?><small class="designation"><?=$q['jabatan']?></small></h3>
                                        </div>
                                    </div>
                                </div>
                                <div class="row">
                                    <div class="col-sm-4">
                                        <div class="member">
                                            <p><img class="img-responsive img-thumbnail img-circle" src="<?=$q['foto']?>" alt="" ></p>
                                            <h3><?=$q['nama']?><small class="designation"><?=$q['jabatan']?></small></h3>
                                        </div>
                                    </div>
                                </div>
                                <?php
                                    if($no == 3){
                                       $no = 1;
                                    }
                                $no++;
                                }
                                ?>
                            </div>
                        <?php
                        $awal++;
                        }
                        ?>
                <?php
                    }
                    ?>